<svg xmlns="http://www.w3.org/2000/svg" width="52.8" height="52.8" viewBox="0 0 52.8 52.8">
  <path id="Path_54" data-name="Path 54" d="M26.4,0A26.4,26.4,0,1,0,52.8,26.4,26.4,26.4,0,0,0,26.4,0ZM7.92,32.689a77.412,77.412,0,0,1,11.9-1.672A87.547,87.547,0,0,1,21.7,45.347,19.6,19.6,0,0,1,7.92,32.689ZM26.4,30.8a2.2,2.2,0,1,1,2.2-2.2A2.2,2.2,0,0,1,26.4,30.8Zm4.7,14.549a87.275,87.275,0,0,1,1.879-14.332,77.388,77.388,0,0,1,11.9,1.673A19.6,19.6,0,0,1,31.1,45.349ZM26.4,22A57.489,57.489,0,0,0,6.9,25.49a19.522,19.522,0,0,1,39.007.146A55.467,55.467,0,0,0,26.4,22Z" fill="#fff"/>
</svg>
