<svg xmlns="http://www.w3.org/2000/svg" width="395.233" height="320.564" viewBox="0 0 395.233 320.564">
  <g id="Register_-_Illustration" data-name="Register - Illustration" transform="translate(-101 -454.324)">
    <rect id="Rectangle_11" data-name="Rectangle 11" width="364" height="160" transform="translate(101 636.324) rotate(-30)" fill="rgba(252,151,0,0.15)"/>
    <g id="checked" transform="matrix(0.978, 0.208, -0.208, 0.978, 217.512, 499.232)">
      <path id="Path_4" data-name="Path 4" d="M137.878,155.206H113.688a2.923,2.923,0,1,0,0,5.845h24.191a2.923,2.923,0,1,0,0-5.845Z" transform="translate(-48.371 -124.966)" fill="#fc9700"/>
      <path id="Path_5" data-name="Path 5" d="M137.878,217.318H113.688a2.923,2.923,0,1,0,0,5.845h24.191a2.923,2.923,0,1,0,0-5.845Z" transform="translate(-48.371 -174.976)" fill="#fc9700"/>
      <path id="Path_6" data-name="Path 6" d="M104.135,51.862V19.027a5.364,5.364,0,0,0-5.358-5.358H96.025V11.756A2.438,2.438,0,0,0,93.59,9.32H87.207a9.807,9.807,0,0,0-19.59,0H61.234A2.438,2.438,0,0,0,58.8,11.756v1.913H56.047a5.364,5.364,0,0,0-5.358,5.358V69.239A5.364,5.364,0,0,0,56.047,74.6H83.181a17.806,17.806,0,1,0,20.954-22.735ZM89.507,54.444H65.317a2.923,2.923,0,0,0,0,5.845h19.44a17.681,17.681,0,0,0-2.348,7.489h-24.9V20.488H58.8v1.653a2.438,2.438,0,0,0,2.435,2.435H93.59a2.438,2.438,0,0,0,2.435-2.435V20.488h1.29V51.641a17.29,17.29,0,0,0-7.1,2.823C89.914,54.451,89.721,54.444,89.507,54.444Zm20.95,12.184-7.092,8.306a5.413,5.413,0,0,1-3.887,1.9q-.1,0-.207,0a5.419,5.419,0,0,1-3.818-1.592l-3.591-3.591a3.41,3.41,0,0,1,4.822-4.822l2.5,2.5,6.089-7.13a3.41,3.41,0,0,1,5.186,4.428Z" fill="#fc9700"/>
    </g>
  </g>
</svg>
